Impact of public library resources on K-12 learning outcomes in the state of Kansas - 2019
…
schooldist_zip_leaID <- schooldist_zip_ori |> 
  select(LEAID, NAME_LEA19, ZCTA5CE10) |> 
  mutate(ZIP = as.numeric(ZCTA5CE10)) |> 
  mutate(geo_id_dist = as.numeric(LEAID)) |> 
  select(-c("ZCTA5CE10", "LEAID")) |> 
  filter(ZIP > 0)

# head(schooldist_zip_leaID)

acs_pov_distr_scores_tracks_zips <- acs_poverty_distr_scores_tracks |> 
  left_join(schooldist_zip_leaID, by = "geo_id_dist")

acs_pov_distr_scores_tracks_zips

# A tibble: 1,971 × 13
   district_name           district_number total_pop under18_pop total_below_pov
   <chr>                             <dbl>     <dbl>       <dbl>           <dbl>
 1 "Southeast of Saline U…             306      2887         691             4.7
 2 "Southeast of Saline U…             306      2887         691             4.7
 3 "Southeast of Saline U…             306      2887         691             4.7
 4 "Southeast of Saline U…             306      2887         691             4.7
 5 "Southeast of Saline U…             306      2887         691             4.7
 6 "Southeast of Saline U…             306      2887         691             4.7
 7 "Smoky Valley Unified …             400      5522        1410            13.8
 8 "Smoky Valley Unified …             400      5522        1410            13.8
 9 "Smoky Valley Unified …             400      5522        1410            13.8
10 "Smoky Valley Unified …             400      5522        1410            13.8
# ℹ 1,961 more rows
# ℹ 8 more variables: under18_below_pov <dbl>, RLA_Scores <dbl>,
#   `Organization Name` <chr>, ACT_Score <dbl>, `School Year` <dbl>,
#   geo_id_dist <dbl>, NAME_LEA19 <chr>, ZIP <dbl>
…
